[02.07.2017 18:41:34] [INFO] External file loaded with 48 fuzzers
[02.07.2017 18:41:34] [INFO] Adding 5 Zero Fuzzers to the fuzzing Database
[02.07.2017 18:41:34] [INFO] Database loaded with 53 fuzzers
