www.hacking-lab.com:HPKP	10	17350	1499139994457,1,0,47DEQpj8HBSa+/TImW+5JCeuQeRkm5NMpJWZG3hSuFU=AhuXBColU8UUONYxQgEzTDu3L5vwoXvDQvxMFOY9AtA=
www.google-analytics.com:HSTS	1	17319	1507273415786,1,1
self-repair.mozilla.org:HPKP	3	17339	1498201016149,1,0,WoiWRyIOVNa9ihaBciRSC7XHjliYS9VwUGOIud4PB18=r/mIkG3eEpVdm+u/ko/cwxzOMo1bk4TyHIlByibiA5E=YLh1dUR9y6Kja30RrAn7JKnbQG/uEtLMkBgFF2Fuihg=sRHdihwgkaib1P1gxX8HFszlD+7/gTfNvuAybgLPNis=
discovery.addons.mozilla.org:HPKP	1	17350	1504295251814,1,1,WoiWRyIOVNa9ihaBciRSC7XHjliYS9VwUGOIud4PB18=r/mIkG3eEpVdm+u/ko/cwxzOMo1bk4TyHIlByibiA5E=
support.mozilla.org:HSTS	0	17319	1527922991932,1,0
services.addons.mozilla.org:HSTS	6	17349	1530556942361,1,0
www.mozilla.org:HSTS	0	17319	1527923015559,1,0
www.facebook.com:HSTS	0	17147	1497079292996,1,0
addons.mozilla.org:HPKP	5	17350	1501570992112,1,1,WoiWRyIOVNa9ihaBciRSC7XHjliYS9VwUGOIud4PB18=r/mIkG3eEpVdm+u/ko/cwxzOMo1bk4TyHIlByibiA5E=
services.addons.mozilla.org:HPKP	5	17349	1504204942362,1,1,WoiWRyIOVNa9ihaBciRSC7XHjliYS9VwUGOIud4PB18=r/mIkG3eEpVdm+u/ko/cwxzOMo1bk4TyHIlByibiA5E=
www.hacking-lab.com:HSTS	10	17350	1514663194456,1,0
versioncheck-bg.addons.mozilla.org:HSTS	1	17339	1498115416900,1,0
versioncheck-bg.addons.mozilla.org:HPKP	1	17339	1503299116901,1,1,WoiWRyIOVNa9ihaBciRSC7XHjliYS9VwUGOIud4PB18=r/mIkG3eEpVdm+u/ko/cwxzOMo1bk4TyHIlByibiA5E=
shavar.services.mozilla.com:HSTS	1	17339	1529661426518,1,1
self-repair.mozilla.org:HSTS	7	17339	1529650616148,1,1
normandy-cloudfront.cdn.mozilla.net:HPKP	3	17339	1498201015473,1,0,WoiWRyIOVNa9ihaBciRSC7XHjliYS9VwUGOIud4PB18=r/mIkG3eEpVdm+u/ko/cwxzOMo1bk4TyHIlByibiA5E=YLh1dUR9y6Kja30RrAn7JKnbQG/uEtLMkBgFF2Fuihg=sRHdihwgkaib1P1gxX8HFszlD+7/gTfNvuAybgLPNis=
support.mozilla.org:HPKP	0	17319	1497682991936,1,0,r/mIkG3eEpVdm+u/ko/cwxzOMo1bk4TyHIlByibiA5E=WoiWRyIOVNa9ihaBciRSC7XHjliYS9VwUGOIud4PB18=
addons.mozilla.org:HSTS	1	17319	1527922992106,1,0
blocklist.addons.mozilla.org:HSTS	0	17339	1498115535033,1,0
discovery.addons.mozilla.org:HSTS	1	17350	1530647251812,1,0
aus5.mozilla.org:HSTS	3	17350	1530647253656,1,0
shavar.services.mozilla.com^firstPartyDomain=safebrowsing.86868755-6b82-4842-b301-72671a0db32e.mozilla:HSTS	0	17349	1530556954604,1,1
www.google.com:HSTS	0	17063	1474393013834,1,0
bugzilla.mozilla.org:HSTS	0	17319	1527922991880,1,1
mozilla.org:HSTS	1	17339	1527922991833,1,0
normandy-cloudfront.cdn.mozilla.net:HSTS	2	17339	1529650615472,1,1
res.compass-security.com:HSTS	10	17350	1514663194008,1,0
versioncheck.addons.mozilla.org:HSTS	0	17319	1496387291671,1,0
ssl.google-analytics.com:HSTS	0	17349	1509907348854,1,1
