self-repair.mozilla.org:HPKP	4	17350	1499197512557,1,0,WoiWRyIOVNa9ihaBciRSC7XHjliYS9VwUGOIud4PB18=r/mIkG3eEpVdm+u/ko/cwxzOMo1bk4TyHIlByibiA5E=YLh1dUR9y6Kja30RrAn7JKnbQG/uEtLMkBgFF2Fuihg=sRHdihwgkaib1P1gxX8HFszlD+7/gTfNvuAybgLPNis=
services.addons.mozilla.org:HSTS	5	17349	1530557009253,1,0
www.facebook.com:HSTS	0	17147	1497079366549,1,0
addons.mozilla.org:HPKP	2	17319	1486711344514,1,1,WoiWRyIOVNa9ihaBciRSC7XHjliYS9VwUGOIud4PB18=r/mIkG3eEpVdm+u/ko/cwxzOMo1bk4TyHIlByibiA5E=
services.addons.mozilla.org:HPKP	4	17349	1504205009254,1,1,WoiWRyIOVNa9ihaBciRSC7XHjliYS9VwUGOIud4PB18=r/mIkG3eEpVdm+u/ko/cwxzOMo1bk4TyHIlByibiA5E=
versioncheck-bg.addons.mozilla.org:HSTS	0	17245	1490028911246,1,0
shavar.services.mozilla.com:HSTS	0	17319	1527923042161,1,1
www.hacking-lab.com:HSTS	9	17350	1514663108370,1,0
self-repair.mozilla.org:HSTS	8	17350	1530647112555,1,1
normandy-cloudfront.cdn.mozilla.net:HPKP	4	17350	1499107418094,1,0,WoiWRyIOVNa9ihaBciRSC7XHjliYS9VwUGOIud4PB18=r/mIkG3eEpVdm+u/ko/cwxzOMo1bk4TyHIlByibiA5E=YLh1dUR9y6Kja30RrAn7JKnbQG/uEtLMkBgFF2Fuihg=sRHdihwgkaib1P1gxX8HFszlD+7/gTfNvuAybgLPNis=
addons.mozilla.org:HSTS	0	17147	1513063344513,1,0
ssl.google-analytics.com:HSTS	0	17245	1500917831120,1,1
aus5.mozilla.org:HSTS	1	17350	1530647166883,1,0
www.google.com:HSTS	0	17063	1474392997017,1,0
shavar.services.mozilla.com^firstPartyDomain=safebrowsing.86868755-6b82-4842-b301-72671a0db32e.mozilla:HSTS	0	17349	1530557025615,1,1
versioncheck-bg.addons.mozilla.org:HPKP	0	17245	1495212611246,1,1,WoiWRyIOVNa9ihaBciRSC7XHjliYS9VwUGOIud4PB18=r/mIkG3eEpVdm+u/ko/cwxzOMo1bk4TyHIlByibiA5E=
res.compass-security.com:HSTS	9	17350	1514663108205,1,0
normandy-cloudfront.cdn.mozilla.net:HSTS	2	17349	1530557018092,1,1
www.hacking-lab.com:HPKP	9	17350	1499139908371,1,0,47DEQpj8HBSa+/TImW+5JCeuQeRkm5NMpJWZG3hSuFU=AhuXBColU8UUONYxQgEzTDu3L5vwoXvDQvxMFOY9AtA=
