[
    {"name": "Cat"},
    {"name": "Monkey"},
    {"name": "Horse"},
    {"name": "Crocodile"},
    {"name": "Fish"},
    {"name": "Chicken"},
    {"name": "Bear"},
    {"name": "Lion"},
    {"name": "Rat"},
    {"name": "Dog"},
    {"name": "Dogfish"},
    {"name": "Dolphin"},
    {"name": "Donkey"},
    {"name": "Dotterel"},
    {"name": "Dove"},
    {"name": "Dragonfly"},
    {"name": "Duck"}
]
